…
### Exercise 6

``` r
nobel_born_outside_us <- nobel_living_science %>%
  filter(
    country_us == "USA",
    born_country_us == "Other")

nobel_born_outside_us %>%
  count(born_country) %>%
  arrange(desc(n))
```

    ## # A tibble: 25 × 2
    ##    born_country       n
    ##    <chr>          <int>
    ##  1 United Kingdom    10
    ##  2 Canada             5
    ##  3 Germany            5
    ##  4 Japan              4
    ##  5 France             3
    ##  6 Australia          2
    ##  7 Netherlands        2
    ##  8 Turkey             2
    ##  9 Austria            1
    ## 10 China              1
    ## # ℹ 15 more rows
…
